<?xml version="1.0" encoding="UTF-8" standalone="no"?>
<!-- Created with Inkscape (http://www.inkscape.org/) -->

<svg
   xmlns:dc="http://purl.org/dc/elements/1.1/"
   xmlns:cc="http://creativecommons.org/ns#"
   xmlns:rdf="http://www.w3.org/1999/02/22-rdf-syntax-ns#"
   xmlns:svg="http://www.w3.org/2000/svg"
   xmlns="http://www.w3.org/2000/svg"
   xmlns:sodipodi="http://sodipodi.sourceforge.net/DTD/sodipodi-0.dtd"
   xmlns:inkscape="http://www.inkscape.org/namespaces/inkscape"
   width="128"
   height="128"
   viewBox="0 0 128 128"
   id="svg4463"
   version="1.1"
   inkscape:version="0.91 r13725"
   sodipodi:docname="spinner.svg"
   inkscape:export-filename="/home/beran/Dev/PV112/z/spinner.png"
   inkscape:export-xdpi="90"
   inkscape:export-ydpi="90">
  <defs
     id="defs4465" />
  <sodipodi:namedview
     id="base"
     pagecolor="#ffffff"
     bordercolor="#666666"
     borderopacity="1.0"
     inkscape:pageopacity="0.0"
     inkscape:pageshadow="2"
     inkscape:zoom="7.34375"
     inkscape:cx="77.858835"
     inkscape:cy="78.125449"
     inkscape:document-units="px"
     inkscape:current-layer="layer1"
     showgrid="true"
     units="px"
     inkscape:snap-object-midpoints="false"
     inkscape:snap-bbox="true"
     inkscape:bbox-nodes="true"
     inkscape:snap-global="true"
     inkscape:snap-center="true">
    <inkscape:grid
       type="xygrid"
       id="grid5011" />
  </sodipodi:namedview>
  <metadata
     id="metadata4468">
    <rdf:RDF>
      <cc:Work
         rdf:about="">
        <dc:format>image/svg+xml</dc:format>
        <dc:type
           rdf:resource="http://purl.org/dc/dcmitype/StillImage" />
        <dc:title></dc:title>
      </cc:Work>
    </rdf:RDF>
  </metadata>
  <g
     inkscape:label="Vrstva 1"
     inkscape:groupmode="layer"
     id="layer1"
     transform="translate(0,-924.36216)">
    <rect
       style="color:#000000;display:inline;overflow:visible;visibility:visible;opacity:1;fill:#c83737;fill-opacity:1;fill-rule:nonzero;stroke:none;stroke-width:3;stroke-linecap:round;stroke-linejoin:bevel;stroke-miterlimit:0;stroke-dasharray:none;stroke-opacity:1;marker:none;enable-background:accumulate"
       id="rect5031"
       width="128"
       height="128.00002"
       x="-200"
       y="924.36212" />
    <path
       style="color:#000000;display:inline;overflow:visible;visibility:visible;opacity:0.4;fill:#000000;fill-opacity:1;fill-rule:nonzero;stroke:none;stroke-width:3;stroke-linecap:round;stroke-linejoin:bevel;stroke-miterlimit:0;stroke-dasharray:none;stroke-opacity:1;marker:none;enable-background:accumulate"
       d="M 64 8 A 56.000023 56.000023 0 0 0 8 64 A 56.000023 56.000023 0 0 0 64 120 A 56.000023 56.000023 0 0 0 120 64 A 56.000023 56.000023 0 0 0 64 8 z M 64 19.199219 A 44.800018 44.800018 0 0 1 108.80078 64 A 44.800018 44.800018 0 0 1 64 108.80078 A 44.800018 44.800018 0 0 1 19.199219 64 A 44.800018 44.800018 0 0 1 64 19.199219 z "
       transform="translate(0,924.36216)"
       id="path5013" />
    <circle
       r="44.800018"
       cy="988.36218"
       cx="64"
       id="circle5029"
       style="color:#000000;display:inline;overflow:visible;visibility:visible;opacity:0.4;fill:#ffffff;fill-opacity:1;fill-rule:nonzero;stroke:none;stroke-width:3;stroke-linecap:round;stroke-linejoin:bevel;stroke-miterlimit:0;stroke-dasharray:none;stroke-opacity:1;marker:none;enable-background:accumulate" />
    <path
       inkscape:transform-center-y="10.621564"
       inkscape:transform-center-x="-0.0725945"
       sodipodi:nodetypes="cccccccc"
       inkscape:connector-curvature="0"
       id="path5027"
       d="m 64,1020.5074 c 17.753295,0 32.14518,-14.392 32.145189,-32.14524 -0.01027,-3.71873 -0.665676,-7.40748 -1.937134,-10.90211 0.271445,1.83068 0.408425,3.68583 0.409401,5.54458 8e-6,21.85707 -12.141455,32.14547 -27.11858,32.14517 -12.875884,-0.017 -23.966435,-10.7644 -26.540447,-25.71901 -4.090234,-1.98688 -7.316172,0.22285 -8.958429,1.83773 1.502848,16.55378 15.378084,29.23178 32,29.23888 z"
       style="color:#000000;display:inline;overflow:visible;visibility:visible;opacity:1;fill:#440055;fill-opacity:1;fill-rule:nonzero;stroke:none;stroke-width:3;stroke-linecap:round;stroke-linejoin:bevel;stroke-miterlimit:0;stroke-dasharray:none;stroke-opacity:1;marker:none;enable-background:accumulate" />
  </g>
</svg>
